<?xml version="1.0" encoding="utf-8"?>
<!-- Generator: Adobe Illustrator 22.1.0, SVG Export Plug-In . SVG Version: 6.00 Build 0)  -->
<svg version="1.1" id="Capa_1" xmlns="http://www.w3.org/2000/svg" xmlns:xlink="http://www.w3.org/1999/xlink" x="0px" y="0px"
	 viewBox="0 0 104 75" style="enable-background:new 0 0 104 75;" xml:space="preserve">
<image style="overflow:visible;enable-background:new    ;" width="104" height="75" id="Capa_1_2_" xlink:href="D42DCE1CF3932635.png" >
</image>
</svg>
